<?xml version="1.0" encoding="utf-8"?>
<!-- Generator: Adobe Illustrator 16.0.0, SVG Export Plug-In . SVG Version: 6.00 Build 0)  -->
<!DOCTYPE svg PUBLIC "-//W3C//DTD SVG 1.1//EN" "http://www.w3.org/Graphics/SVG/1.1/DTD/svg11.dtd">
<svg version="1.1" id="Layer_1" xmlns="http://www.w3.org/2000/svg" xmlns:xlink="http://www.w3.org/1999/xlink" x="0px" y="0px"
	 width="61.207px" height="65.041px" viewBox="0 0 61.207 65.041" enable-background="new 0 0 61.207 65.041" xml:space="preserve">
<g>
	<circle fill="#D6DCC2" cx="41.6" cy="7.536" r="5.019"/>
	<polygon fill="#D6DCC2" points="42.811,31.4 57.333,23.018 54.38,17.905 44.971,23.335 39.091,13.148 22.737,13.148 15.764,25.278 
		20.881,28.221 26.152,19.052 32.267,19.053 18.863,42.293 5.651,34.634 2.689,39.741 21.022,50.369 27.035,39.944 36.119,39.944 
		36.119,61.56 42.023,61.56 42.023,34.04 30.439,34.04 37.382,22 	"/>
</g>
</svg>
