[{"id":1,"name":"麗港城","address":"麗港街1號","ppst":10523,"coorX":62,"coorY":-18,"coorZ":0,"developer":"長江實業(集團)有限公司","sizes":["517","522","525","687","748"],"occupation_dates":1990,"no_of_flat":8072,"no_of_block":38},
{"id":2,"name":"麥花臣匯","address":"奶路臣街38號","ppst":19931,"coorX":54.5,"coorY":-20.5,"coorZ":0,"developer":"九龍建業、市區重建局及香港遊樂場協會","sizes":["517","670","840","985","1005"],"occupation_dates":2014,"no_of_flat":293,"no_of_block":2},
{"id":3,"name":"凱旋門","address":"柯士甸道西1號","ppst":21978,"coorX":52.5,"coorY":-19,"coorZ":0,"developer":"新鴻基地產發展有限公司","sizes":["517","670","840","985","1005"],"occupation_dates":2006,"no_of_flat":1054,"no_of_block":4},
{"id":4,"name":"美孚新村","address":"百老匯街22-24號","ppst":9938,"coorX":50,"coorY":-22,"coorZ":0,"developer":"美孚企業有限公司","sizes":["517","670","840","985","1005"],"occupation_dates":1968,"no_of_flat":13.149,"no_of_block":99},
{"id":5,"name":"黃埔花園","address":"必嘉街121號","ppst":11698,"coorX":56,"coorY":-18.5,"coorZ":0,"developer":"和記黃埔地產有限公司（重組後成為長江實業地產有限公司）","sizes":["517","670","840","985","1005"],"occupation_dates":1986,"no_of_flat":10.519,"no_of_block":88},
{"id":6,"name":"德褔花園","address":"偉業街33號","ppst":9686,"coorX":60,"coorY":-21,"coorZ":0,"developer":"香港地下鐵路公司（今港鐵公司）恆隆地產及合和實業","sizes":["517","670","840","985","1005"],"occupation_dates":1980,"no_of_flat":4991,"no_of_block":21},
{"id":7,"name":"昇悅居","address":"荔枝角道833號","ppst":12249,"coorX":51.2,"coorY":-22.5,"coorZ":0,"developer":"新鴻基 / 信德集團","sizes":["517","670","840","985","1005"],"occupation_dates":2003,"no_of_flat":2439,"no_of_block":7},
{"id":8,"name":"宇晴軒","address":"深盛道","ppst":12807,"coorX":51.5,"coorY":-22.8,"coorZ":0,"developer":"長江實業(集團)有限公司 / 新鴻基地產發展有限公司","sizes":["517","670","840","985","1005"],"occupation_dates":2005,"no_of_flat":2288,"no_of_block":6},
{"id":9,"name":"翔龍灣","address":"新碼頭街38號","ppst":12960,"coorX":56.5,"coorY":-20.8,"coorZ":0,"developer":"恆基兆業 / 中華煤氣","sizes":["517","670","840","985","1005"],"occupation_dates":2006,"no_of_flat":1783,"no_of_block":5},
{"id":10,"name":"傲雲峰","address":"宋皇臺道38號","ppst":13381,"coorX":56,"coorY":-21,"coorZ":0,"developer":"新世界 / 長江實業 / 上海實業","sizes":["517","670","840","985","1005"],"occupation_dates":2004,"no_of_flat":2209,"no_of_block":6},
{"id":11,"name":"海逸豪園","address":"海逸道8號","ppst":12265,"coorX":56.2,"coorY":-19,"coorZ":0,"developer":"長江實業 / 中電","sizes":["517","670","840","985","1005"],"occupation_dates":2000,"no_of_flat":4740,"no_of_block":25},
{"id":12,"name":"日出康城","address":"康城路1號","ppst":8405,"coorX":66,"coorY":-16,"coorZ":0,"developer":"長江實業(集團)有限公司 / 香港鐵路有限公司","sizes":["517","670","840","985","1005"],"occupation_dates":2014,"no_of_flat":8047,"no_of_block":34},
{"id":13,"name":"泓景臺","address":"荔枝角道863號 ","ppst":12102,"coorX":51,"coorY":-22,"coorZ":0,"developer":"長江實業 / 其他","sizes":["517","670","840","985","1005"],"occupation_dates":2004,"no_of_flat":2528,"no_of_block":7},
{"id":14,"name":"匯景花園","address":"匯景道8號    ","ppst":11269,"coorX":62.5,"coorY":-18.5,"coorZ":0,"developer":"長江實業(集團)有限公司","sizes":["537","612-614","718-720"],"occupation_dates":1992,"no_of_flat":4112,"no_of_block":17},
{"id":15,"name":"淘大花園","address":"牛頭角道77號","ppst":11432,"coorX":60.5,"coorY":-20.5,"coorZ":0,"developer":"恆隆集團","sizes":["517","670","840","985","1005"],"occupation_dates":1987,"no_of_flat":4896,"no_of_block":19},
{"id":16,"name":"麗晶花園","address":"宏光道80號 ","ppst":8850,"coorX":59,"coorY":-22,"coorZ":0,"developer":"香港房屋委員會","sizes":["517","670","840","985","1005"],"occupation_dates":1985,"no_of_flat":5904,"no_of_block":22},
{"id":17,"name":"港灣豪庭","address":"福利街8號","ppst":13047,"coorX":53,"coorY":-21,"coorZ":0,"developer":"恆基兆業 / 香港小輪","sizes":["517","670","840","985","1005"],"occupation_dates":2003,"no_of_flat":3520,"no_of_block":10},
{"id":18,"name":"柏景灣","address":"海庭道18號","ppst":15812,"coorX":52.5,"coorY":-20,"coorZ":0,"developer":"信和集團 / 中國海外 / 嘉里建設 / 港鐵 / 新中地產","sizes":["517","670","840","985","1005"],"occupation_dates":2001,"no_of_flat":2996,"no_of_block":9},
{"id":19,"name":"一號銀海","address":"海輝道18號 ","ppst":28699,"coorX":52.4,"coorY":-20.4,"coorZ":0,"developer":"信和集團 ","sizes":["517","670","840","985","1005"],"occupation_dates":2006,"no_of_flat":731,"no_of_block":7},
{"id":20,"name":"碧海藍天","address":"深盛路8號","ppst":12533,"coorX":51.5,"coorY":-22,"coorZ":0,"developer":"恆隆集團 / 現代建設株式會社","sizes":["517","670","840","985","1005"],"occupation_dates":2003,"no_of_flat":1616,"no_of_block":5},
{"id":21,"name":"又一居","address":"瑰麗路21號","ppst":14534,"coorX":54.5,"coorY":-22,"coorZ":0,"developer":"會德豐發展有限公司 / 信和集團","sizes":["517","670","840","985","1005"],"occupation_dates":1995,"no_of_flat":1822,"no_of_block":32},



{"id":51,"name":"禮頓山","address":"樂活道2B號","ppst":14534,"coorX":55.87594733,"coorY":-14.87796044,"coorZ":0,"developer":"新鴻基地產","sizes":[922,1073,1087,1128,1240,1257,1461,1674,1724],"occupation_dates":2002,"no_of_flat":552,"no_of_block":8},
{"id":52,"name":"陽明山莊","address":"大潭水塘道88號","ppst":14534,"coorX":57.7399333,"coorY":-12.77304118,"coorZ":0,"developer":"陽明山莊地產開發","sizes":[1001,1031,1042,1436,1468,1505,1622,1886,2049,2069,2157,2167,2308],"occupation_dates":1989,"no_of_flat":979,"no_of_block":18},
{"id":53,"name":"杏花邨","address":"盛泰道100號","ppst":14534,"coorX":62.35264846,"coorY":-15.08068266,"coorZ":0,"developer":"香港鐵路 / 杏花邨發展","sizes":[471,473,499,534,566,595,596,614,883,888,955,959],"occupation_dates":1990,"no_of_flat":6504,"no_of_block":48},
{"id":54,"name":"太古城","address":"太古灣道","ppst":14534,"coorX":59.90925875,"coorY":-16.18816654,"coorZ":0,"developer":"太古地產","sizes":[447,489,580,583,658,685,689,691,703,723,748,759,760,797,809,897,1015,1114,1280],"occupation_dates":1987,"no_of_flat":12698,"no_of_block":61},
{"id":55,"name":"藍灣半島","address":"小西灣道28號","ppst":14534,"coorX":63.84092271,"coorY":-13.76325746,"coorZ":0,"developer":"信和集團","sizes":[595,604,614,628,652,728,732,746,750,752,811,830,848,1392,1420],"occupation_dates":2001,"no_of_flat":3111,"no_of_block":8},
{"id":56,"name":"康怡花園","address":"康愉街31-45號","ppst":14534,"coorX":60.01812634,"coorY":-15.90992517,"coorZ":0,"developer":"恆隆集團 / 新世界發展 / 港鐵","sizes":[505,522,594,685,710],"occupation_dates":6648,"no_of_flat":1822,"no_of_block":32},
{"id":57,"name":"城市花園","address":"電氣道233號","ppst":14534,"coorX":57.23211718,"coorY":-16.7845379,"coorZ":0,"developer":"長江實業","sizes":[566,596,633,651,662,759,781,792,797,807,818,835,867,917,921,931,961,966,1010,1012,1032,1049,1131,1181,1226],"occupation_dates":1986,"no_of_flat":2406,"no_of_block":14},
{"id":58,"name":"寶馬山花園","address":"寶馬山道1號","ppst":14534,"coorX":58.36014283,"coorY":-16.32019049,"coorZ":0,"developer":"信和集團","sizes":[518,567,587,806,825,830,843,845,847,871,875,917,920,1474,1502,1518,1535,1626],"occupation_dates":1991,"no_of_flat":809,"no_of_block":14},
{"id":59,"name":"比華利山","address":"樂活道6號","ppst":14534,"coorX":56.18459603,"coorY":-14.67961864,"coorZ":0,"developer":"恒基兆業 / 恒隆地產","sizes":[1057,1070,1083,1334,1346,1386,1417,1426,1432,1441,1455,1468,1651,1654,1665,1682],"occupation_dates":1988,"no_of_flat":698,"no_of_block":10},
{"id":60,"name":"寶翠園","address":"薄扶林道89號","ppst":14534,"coorX":49.86986658,"coorY":-15.99374018,"coorZ":0,"developer":"新鴻基地產 / 信德集團 / 新世界 / 廖創興企業","sizes":[670,663,672,771,762,772,893,898,905,1053,1057,1061,1103,1109,1114],"occupation_dates":2001,"no_of_flat":2214,"no_of_block":6},


{"id":61,"name":"置富花園","address":"置富道9號","ppst":14534,"coorX":50.53875185,"coorY":-12.62846333,"coorZ":0,"developer":"置地發展","sizes":[439,588,809,845,957],"occupation_dates":1981,"no_of_flat":4263,"no_of_block":27},
{"id":62,"name":"碧瑤灣","address":"域多利道550號","ppst":14534,"coorX":49.74231087,"coorY":-13.17608739,"coorZ":0,"developer":"新世界發展","sizes":[1012,1241,1279,1296,1314,1334,1386,2079,2119,2387,2488,2770],"occupation_dates":1979,"no_of_flat":1543,"no_of_block":33},
{"id":63,"name":"貝沙灣","address":"數碼港道","ppst":14534,"coorX":49.74675126,"coorY":-12.26393532,"coorZ":0,"developer":"盈科大衍地產發展","sizes":[598,614,618,649,653,675,684,698,723,729,823,844,858,900,908,938,1025,1038,1043,1076,1080,1091,1095,1100,1118,1188,1153,1190,1200,1213,1225,1251,1286,1296,1300,1341,1358,1364,1401,1410,1423,1459,1471,1921,1955,2222,2953,3397,3946,4463,4599],"occupation_dates":2008,"no_of_flat":2875,"no_of_block":77},
{"id":64,"name":"海怡半島","address":"海怡路6號","ppst":14534,"coorX":51.29699832,"coorY":-10.96214743,"coorZ":0,"developer":"和記黃埔 / 長江實業 / 嘉宏國際 / 香港電燈","sizes":[513,516,521,526,543,545,581,584,590,618,621,623,629,631,633,656,729,730,737,747,1056,1105,1113],"occupation_dates":1995,"no_of_flat":9812,"no_of_block":34},
{"id":65,"name":"南豐新邨","address":"基利坊15-27號","ppst":14534,"coorX":59.50898653,"coorY":-15.6238529,"coorZ":0,"developer":"南豐發展","sizes":[391,570],"occupation_dates":1978,"no_of_flat":2826,"no_of_block":12},
{"id":66,"name":"嘉亨灣","address":"太康街38號","ppst":14534,"coorX":60.73388232,"coorY":-16.03815602,"coorZ":0,"developer":"恆基兆業 / 中華煤氣","sizes":[424,429,462,467,469,634,647,658,662,673,685,712,749,904,947,1013,1062,1080,1129,1263,1266,1288,1382,1390,2170],"occupation_dates":2005,"no_of_flat":2017,"no_of_block":5},
{"id":67,"name":"荷李活華庭","address":"皇后大道中268號","ppst":14534,"coorX":51.95705097,"coorY":-15.97204616,"coorZ":0,"developer":"香港房屋委員會","sizes":[615,626,631,635,639,709,756,780],"occupation_dates":1999,"no_of_flat":550,"no_of_block":2},
{"id":68,"name":"嘉輝花園","address":"士美非路71-77號","ppst":14534,"coorX":49.24640798,"coorY":-15.5084696,"coorZ":0,"developer":"恆基兆業","sizes":[198,236,281,294,297,314],"occupation_dates":1986,"no_of_flat":912,"no_of_block":4},
{"id":69,"name":"帝后華庭","address":"皇后街1號","ppst":14534,"coorX":51.45449352,"coorY":-16.303195,"coorZ":0,"developer":"新世界 / 長江 / 市建局","sizes":[322,393,395,411,516,518,533],"occupation_dates":2003,"no_of_flat":1148,"no_of_block":3},
{"id":70,"name":"康威花園","address":"新街市街8號","ppst":14534,"coorX":51.78279303,"coorY":-16.30547086,"coorZ":0,"developer":"","sizes":[412,418,425,432,437,443,467],"occupation_dates":1987,"no_of_flat":412,"no_of_block":2},




{"id":101,"name":"沙田第一城","address":"得利街4號","ppst":11882,"coorX":58.04183118,"coorY":-28.46996608,"coorZ":0,"developer":"長江實業 / 新鴻基地產 / 新世界發展 / 恆基兆業","sizes":[284, 304, 327, 451, 478, 484, 504, 515, 544, 688, 707, 819, 853],"occupation_dates":1981,"no_of_flat":10643,"no_of_block":52},
{"id":102,"name":"新港城","address":"鞍誠街18號","ppst":11882,"coorX":61.74337743,"coorY":-32.86282725,"coorZ":0,"developer":"恆基兆業","sizes":[321, 337, 338, 348, 361, 363, 369, 404, 414, 417, 465, 490, 503, 512, 513, 519, 523, 551, 568, 618, 626, 644, 649, 654, 920, 932],"occupation_dates":1993,"no_of_flat":4760,"no_of_block":20},
{"id":103,"name":"壹號雲頂","address":"美田路63號","ppst":11882,"coorX":55.34802314,"coorY":-27.87638448,"coorZ":0,"developer":"新鴻基地產","sizes":[304, 420, 526, 555, 559, 590, 591, 857, 876, 1027, 1060, 1063, 1098, 1100, 1137, 1147, 1202, 1229, 1292, 1295, 1356, 1380, 1392, 1395, 1400, 1413, 1688, 1812, 1886, 1887, 1890, 1938, 1939, 1940, 1952, 1954, 1993, 2943, 3272, 3319, 3353],"occupation_dates":2008,"no_of_flat":412,"no_of_block":8},
{"id":104,"name":"穗禾苑","address":"穗禾路10號","ppst":11882,"coorX":57.02982105,"coorY":-29.16964404,"coorZ":0,"developer":"香港房屋委員會","sizes":[411, 457, 471, 473, 550, 617],"occupation_dates":1980,"no_of_flat":3501,"no_of_block":9},
{"id":105,"name":"銀禧花園","address":"樂景街2-18號 ","ppst":11882,"coorX":57.83090699,"coorY":-29.76772841,"coorZ":0,"developer":"長江實業 / 香港鐵路","sizes":[342, 370, 414, 498, 506, 510, 660, 674],"occupation_dates":1986,"no_of_flat":2260,"no_of_block":9},
{"id":106,"name":"御龍山","address":"樂景街28號","ppst":11882,"coorX":57.7402943,"coorY":-29.46593317,"coorZ":0,"developer":"信和集團 / 香港鐵路 ","sizes":[550, 551, 554, 555, 556, 558, 561, 563, 567, 675, 680, 684, 689, 692, 696, 700, 701, 756, 760, 761, 762, 764, 767, 769, 774, 775, 776, 777, 779, 787, 803, 891, 894, 900, 903, 908, 912, 925, 940, 942, 943, 1086, 1089, 1091, 1141, 1142, 1196, 1223, 1226, 1227, 1230, 1238, 1326, 1332, 1375, 1409, 1413, 1419, 1426, 1431, 1681, 1875, 2079, 2485, 2519],"occupation_dates":2009,"no_of_flat":1375,"no_of_block":10},
{"id":107,"name":"駿景園","address":"駿景路1號","ppst":11882,"coorX":58.16748558,"coorY":-30.31790974,"coorZ":0,"developer":"香港鐵路 / 新鴻基地產","sizes":[594, 676, 974, 958, 990, 1039, 1041, 1042, 1057, 1294, 1370, 1373, 1479, 1930, 2135, 2478],"occupation_dates":1995,"no_of_flat":2504,"no_of_block":10},
{"id":108,"name":"金獅花園","address":"翠田街5-7號","ppst":11882,"coorX":55.94927982,"coorY":-26.42626236,"coorZ":0,"developer":"華懋集團","sizes":[260, 266, 270, 281, 282, 285, 306, 307, 321, 322, 336, 363],"occupation_dates":1986,"no_of_flat":2768,"no_of_block":13},
{"id":109,"name":"美城苑","address":"美田路32-36號 ","ppst":11882,"coorX":54.88653622,"coorY":-27.53708661,"coorZ":0,"developer":"香港房屋委員會","sizes":[338, 351, 363, 381, 394, 438, 490],"occupation_dates":1992,"no_of_flat":2192,"no_of_block":3},



{"id":114,"name":"大埔中心","address":"安邦路9號","ppst":10205,"coorX":53.59792275,"coorY":-36.08308576,"coorZ":0,"developer":"新鴻基地產","sizes":[299, 313, 315, 325, 361, 371, 379, 384, 391, 407, 409, 451, 453, 462, 522, 532],"occupation_dates":1985,"no_of_flat":4080,"no_of_block":22},

{"id":121,"name":"碧湖花園","address":"一鳴路15號","ppst":8983,"coorX":50.97642436,"coorY":-40.79543508,"coorZ":0,"developer":"信和置業","sizes":[400, 441, 488, 489, 491, 621, 682, 730, 1006],"occupation_dates":1994,"no_of_flat":1316,"no_of_block":7},
{"id":122,"name":"粉嶺中心","address":"新運路33號","ppst":8983,"coorX":50.84651008,"coorY":-41.12184868,"coorZ":0,"developer":"恆基兆業","sizes":[365, 366, 368, 465, 465, 468, 473, 476, 510, 512, 513, 520, 533, 535],"occupation_dates":1990,"no_of_flat":2200,"no_of_block":11},
{"id":123,"name":"御皇庭","address":"清曉路18號","ppst":8983,"coorX":48.82393386,"coorY":-41.73498304,"coorZ":0,"developer":"恆基兆業 / 爪哇","sizes":[370, 371, 372, 374, 376, 377, 397, 398, 399, 400, 412, 413, 414, 415, 417, 434, 436, 438, 439, 440, 450, 452, 454, 532, 535, 536, 546, 548, 550, 551, 552, 553, 554, 568, 569, 686, 688, 690, 691, 692, 694, 695, 841, 846, 847, 966, 970, 972, 1008],"occupation_dates":2006,"no_of_flat":922,"no_of_block":3},
{"id":124,"name":"太湖花園","address":"大埔頭路18號","ppst":8983,"coorX":53.1038971,"coorY":-36.78525981,"coorZ":0,"developer":"信和集團 / 中國海外","sizes":[355, 400, 422, 431, 438, 440, 445, 446, 451, 463, 476, 478, 510, 523, 526, 540, 555, 569, 584, 589, 590, 635, 679, 916, 944, 971, 980, 996, 997, 1017, 1032, 1049, 1057, 1131, 1206, 1236],"occupation_dates":1992,"no_of_flat":2476,"no_of_block":15},
{"id":125,"name":"錦繡花園","address":"錦繡花園河北第十街","ppst":8983,"coorX":39.74228047,"coorY":-40.06849583,"coorZ":0,"developer":"加拿大發展","sizes":[840, 846, 848, 891, 902, 915, 950, 962, 1035, 1100, 1138, 1245, 1395],"occupation_dates":1987,"no_of_flat":5018,"no_of_block":5018},
{"id":126,"name":"YOHO TOWN","address":"元龍街8號","ppst":10666,"coorX":38.25459587,"coorY":-35.27780089,"coorZ":0,"developer":"新鴻基地產","sizes":[390, 392, 393, 399, 418, 422, 424, 432, 433, 435, 443, 445, 461, 463, 469, 475, 478, 479, 481, 482, 484, 485, 492, 499, 507, 515, 516, 520, 525, 527, 532, 534, 537, 538, 545, 555, 566, 567, 574, 576, 606, 607, 608, 644, 650, 656, 685, 691, 714, 741, 760, 770, 773, 778, 795, 808, 813, 817, 823, 832, 836, 840, 844, 873, 880, 883, 898, 901, 908, 915, 917, 938, 940, 948, 956, 958, 964, 966, 972, 973, 990, 1005, 1006, 1026, 1029, 1045, 1047, 1048, 1066, 1084, 1118, 1139, 1194, 1206, 1231],"occupation_dates":2004,"no_of_flat":2201,"no_of_block":16},
{"id":127,"name":"萬景峰","address":"楊屋道1號","ppst":10666,"coorX":47.19663592,"coorY":-26.37615689,"coorZ":0,"developer":"信和集團 / 市區重建局","sizes":[505, 507, 508, 522, 523, 538, 552, 593, 597, 598, 629, 656, 657, 664, 667, 668, 670, 672, 673, 674, 701, 709, 714, 717, 739, 741, 742, 790, 821, 822, 825, 826, 827, 829, 831, 873, 1009, 1010, 1011, 1022, 1023, 1025, 1026, 1082, 1097, 1277, 1280, 1281, 1348, 2152, 2207, 2228, 2234, 2235, 2240, 2257, 2259, 2274, 2305, 2319, 2320, 2359, 2690],"occupation_dates":2007,"no_of_flat":1527,"no_of_block":5},
{"id":128,"name":"麗城花園","address":"青山公路荃灣段530-590號 ","ppst":10666,"coorX":46.11004181,"coorY":-26.83054439,"coorZ":0,"developer":"長江實業","sizes":[470, 481, 572, 644, 668, 728, 742],"occupation_dates":1987,"no_of_flat":6016,"no_of_block":19},
{"id":129,"name":"荃灣中心","address":"荃景圍102號","ppst":10666,"coorX":46.13073953,"coorY":-27.51489093,"coorZ":0,"developer":"新鴻基地產","sizes":[233, 307, 324, 329, 354, 362, 374, 377, 378, 380, 422, 425, 460, 515],"occupation_dates":1982,"no_of_flat":4516,"no_of_block":19},
{"id":130,"name":"浪翠園","address":"青山公路青龍頭18號","ppst":10666,"coorX":40.68922515,"coorY":-25.98669238,"coorZ":0,"developer":"新鴻基地產","sizes":[412, 415, 424, 435, 454, 460, 463, 464, 466, 470, 471, 479, 481, 484, 495, 504, 555, 560, 566, 581, 588, 597, 614, 617, 618, 632, 635, 653, 657, 701, 747, 762, 763, 769, 784, 802, 817, 1236],"occupation_dates":1992,"no_of_flat":2224,"no_of_block":13},

{"id":133,"name":"新屯門中心","address":"龍門路55-65號","ppst":7292,"coorX":29.2649992,"coorY":-27.79632584,"coorZ":0,"developer":"新鴻基地產 / 香港鐵路","sizes":[455, 462, 464, 501, 517, 597, 603, 622, 710, 735],"occupation_dates":1990,"no_of_flat":3500,"no_of_block":10},
{"id":138,"name":"翠怡花園","address":"楓樹窩路1號","ppst":9539,"coorX":46.65830271,"coorY":-24.37239072,"coorZ":0,"developer":"新鴻基地產 / 香港捷和集團","sizes":[365, 366, 368, 436, 440, 442, 443, 448, 451, 471, 494, 495, 450, 467, 501],"occupation_dates":1989,"no_of_flat":3216,"no_of_block":11},
{"id":140,"name":"東堤灣畔","address":"慶東街1號","ppst":8827,"coorX":28,"coorY":-16,"coorZ":0,"developer":"香港鐵路 / 恆隆 / 恆基兆業地產 / 新世界發展 / 新鴻基地產 / 太古","sizes":[521, 523, 527, 531, 536, 544, 547, 569, 572, 587, 588, 590, 591, 592, 607, 618, 759, 772, 803, 813, 821, 860, 868, 870, 1159, 1198, 1202, 1220, 1225, 1232, 1236, 1241, 1251, 1259, 1354, 1401, 1411, 1475, 1480],"occupation_dates":1999,"no_of_flat":2204,"no_of_block":8},

{"id":143,"name":"匡湖居","address":"西貢公路380號","ppst":20333,"coorX":64.23793383,"coorY":-24.92862876,"coorZ":0,"developer":"恆基兆業地產 ","sizes":[522, 533, 597, 1000, 1187, 1323, 1355, 1371, 1373, 1406, 1576, 1819],"occupation_dates":1983,"no_of_flat":535,"no_of_block":465}]